{
  "Version": "2012-10-17",
  "Statement": [
    {
      "Sid": "allowSNSforLambda",
      "Effect": "Allow",
      "Action": [
        "sns:Publish",
        "sns:Subscribe"
      ],
      "Resource": [
        "*"
      ]
    },
    {
      "Sid": "enableLogsforLambda",
      "Action": [
          "logs:CreateLogGroup",
          "logs:CreateLogStream",
          "logs:PutLogEvents"
      ],
      "Effect": "Allow",
      "Resource": "arn:aws:logs:*:*:*"
    }
  ]
}
