{
  "SecurityResetUrls/back-office": {"baseurl": "env:BACKOFFICE_BASE_URL"},
  "SecurityResetUrls/borrower-portal": {"baseurl": "env:BORROWER_PORTAL_BASE_URL"},
  "services/*": {"value": "env-tmpl:CFG_SERVICES_URL_TMPL"},
  "services/dataAttributes": {"name": "data-attributes"},
  "services/alertEngine": {"name": "alert-engine"},
  "services/security": {"name": "security-identity"},
  "services/eventHub": {"name": "eventhub"},
  "services/statusManagement": {"name": "status-management"},
  "services/verificationEngine": {"name": "verification-engine"},
  "services/lookupservice": {"name": "lookup-service"},
  "services/activityList": {"name": "activity-log"},
  "services/loanFilters": {"name": "application-filters"},
  "services/appFlow": {"name": "app"},
  "services/appProcessor": {"name": "application-processor"},
  "services/downloadDocService": {"name": "document-manager"},
  "services/loanActivityLog": {"name": "activity-log"},
  "services/applicantDetail": {"name": "applicant"},
  "services/documentService": {"name": "application-document"},
  "services/assetService": {"name": "asset-manager"},
  "services/emailSerivce": {"name": "ce-email"},
  "services/loanStatusManagement": {"name": "status-management"},
  "services/backofficeconfiguration": {"name": "configuration"},
  "services/decisionEngine": {"name": "decision-engine"},
  "services/applicationDetail": {"name": "application"},
  "services/smsService": {"name": "sms"},
  "services/scoreCard": {"name": "scorecard"},
  "services/emailhunter": {"name": "email-hunter"},
  "services/workflow": {"value": "env:WORKFLOW_URL"},
  "services/flowAnalytics": {"value": "ignore:"},
  "services/jsonbase": {"value": "ignore:"}
}
