{
  "Version": "2012-10-17",
  "Statement": [{
    "Sid": "allowAutoScalingForECSService",
    "Effect": "Allow",
    "Action": [
      "ecs:DescribeServices",
      "ecs:UpdateService",
      "cloudwatch:DescribeAlarms"
    ],
    "Resource": "*"
  }]
}
