{
  "memoryReservation": 500,
  "memory": 512,
  "portMappings": [{
    "containerPort": 5000,
    "protocol": "tcp"
  }],
  "environment": [{
      "name": "ASPNET_ENV",
      "value": "Development"
    },
    {
      "name": "DATA-ATTRIBUTES_NATS_URL",
      "value": "${NATS_URL}"
    },
    {
      "name": "DATA-ATTRIBUTES_MONGO_DATABASE",
      "value": "data-attributes"
    },
    {
      "name": "DATA-ATTRIBUTES_MONGO_CONNECTION",
      "value": "${APP_MONGODB_URI}"
    },
    {
      "name": "DATA-ATTRIBUTES_CONFIGURATION_HOST",
      "value": "configuration"
    },
    {
      "name": "DATA-ATTRIBUTES_CONFIGURATION_PORT",
      "value": "5000"
    },
    {
      "name": "DATA-ATTRIBUTES_EVENTHUB_HOST",
      "value": "eventhub"
    },
    {
      "name": "DATA-ATTRIBUTES_EVENTHUB_PORT",
      "value": "5000"
    },
    {
      "name": "DATA-ATTRIBUTES_TENANT_HOST",
      "value": "tenant"
    },
    {
      "name": "DATA-ATTRIBUTES_TENANT_PORT",
      "value": "5000"
    },
    {
      "name": "DATA-ATTRIBUTES_DECISION_ENGINE_HOST",
      "value": "decision-engine"
    },
    {
      "name": "DATA-ATTRIBUTES_DECISION_ENGINE_PORT",
      "value": "5000"
    },
    {
      "name": "DATA-ATTRIBUTES_LOOKUP_HOST",
      "value": "lookup-service"
    },
    {
      "name": "DATA-ATTRIBUTES_LOOKUP_PORT",
      "value": "5000"
    },
    {
      "name": "CONFIGURATION_URL",
      "value": "http://configuration:5000"
    },
    {
      "name": "CONFIGURATION_NAME",
      "value": "data-attributes"
    },
    {
      "name": "SECRET_KEY",
      "value": "UzFnbjFuZz1zM2NyM3Q="
    }
  ]
}
