{
  "memoryReservation": 1000,
  "memory": 1024,
  "portMappings": [{
    "containerPort": 5000,
    "protocol": "tcp"
  }],
  "environment": [{
      "name": "ASPNETCORE_ENVIRONMENT",
      "value": "Development"
    },
    {
      "name": "APPLICATION-FILTERS_NATS_URL",
      "value": "${NATS_URL}"
    },
    {
      "name": "APPLICATION-FILTERS_MONGO_CONNECTION",
      "value": "${APP_MONGODB_URI}"
    },
    {
      "name": "APPLICATION-FILTERS_MONGO_DATABASE",
      "value": "application-filters"
    },
    {
      "name": "APPLICATION-FILTERS_CONFIGURATION_HOST",
      "value": "configuration"
    },
    {
      "name": "APPLICATION-FILTERS_CONFIGURATION_PORT",
      "value": "5000"
    },
    {
      "name": "APPLICATION-FILTERS_TENANT_HOST",
      "value": "tenant"
    },
    {
      "name": "APPLICATION-FILTERS_TENANT_PORT",
      "value": "5000"
    },
    {
      "name": "APPLICATION-FILTERS_EVENTHUB_HOST",
      "value": "eventhub"
    },
    {
      "name": "APPLICATION-FILTERS_EVENTHUB_PORT",
      "value": "5000"
    },
    {
      "name": "APPLICATION-FILTERS_APPLICATION_HOST",
      "value": "application"
    },
    {
      "name": "APPLICATION-FILTERS_APPLICATION_PORT",
      "value": "5000"
    },
    {
      "name": "APPLICATION-FILTERS_APPLICANT_HOST",
      "value": "applicant"
    },
    {
      "name": "APPLICATION-FILTERS_APPLICANT_PORT",
      "value": "5000"
    },
    {
      "name": "APPLICATION-FILTERS_STATUS_MANAGEMENT_HOST",
      "value": "status-management"
    },
    {
      "name": "APPLICATION-FILTERS_STATUS_MANAGEMENT_PORT",
      "value": "5000"
    },
    {
      "name": "APPLICATION-FILTERS_OFFER_ENGINE_HOST",
      "value": "application-processor"
    },
    {
      "name": "APPLICATION-FILTERS_OFFER_ENGINE_PORT",
      "value": "5000"
    },
    {
      "name": "APPLICATION-FILTERS_DECISION_ENGINE_HOST",
      "value": "decision-engine"
    },
    {
      "name": "APPLICATION-FILTERS_DECISION_ENGINE_PORT",
      "value": "5000"
    },
    {
      "name": "APPLICATION-FILTERS_VERIFICATION_ENGINE_HOST",
      "value": "verification-engine"
    },
    {
      "name": "APPLICATION-FILTERS_VERIFICATION_ENGINE_PORT",
      "value": "5000"
    },
    {
      "name": "APPLICATION-FILTERS_DATA_ATTRIBUTES_HOST",
      "value": "data-attributes"
    },
    {
      "name": "APPLICATION-FILTERS_DATA_ATTRIBUTES_PORT",
      "value": "5000"
    },
    {
      "name": "APPLICATION-FILTERS_ASSIGNMENT_HOST",
      "value": "assignment"
    },
    {
      "name": "APPLICATION-FILTERS_ASSIGNMENT_PORT",
      "value": "5000"
    },
    {
      "name": "APPLICATION-FILTERS_IDENTITY_HOST",
      "value": "security-identity"
    },
    {
      "name": "APPLICATION-FILTERS_IDENTITY_PORT",
      "value": "5000"
    },
    {
      "name": "SECRET_KEY",
      "value": "UzFnbjFuZz1zM2NyM3Q="
    }
  ]
}
