{
  "memoryReservation": 256,
  "memory": 256,
  "portMappings": [{
    "containerPort": 5000,
    "protocol": "tcp"
  }],
  "environment": [{
      "name": "ASPNETCORE_ENVIRONMENT",
      "value": "Development"
    },
    {
      "name": "APPLICATION-CONSENT_NATS_URL",
      "value": "${NATS_URL}"
    },
    {
      "name": "APPLICATION-CONSENT_MONGO_CONNECTION",
      "value": "${APP_MONGODB_URI}"
    },
    {
      "name": "APPLICATION-CONSENT_MONGO_DATABASE",
      "value": "Consent"
    },
    {
      "name": "APPLICATION-CONSENT_CONFIGURATION_PORT",
      "value": "5000"
    },
    {
      "name": "APPLICATION-CONSENT_CONFIGURATION_HOST",
      "value": "configuration"
    },
    {
      "name": "APPLICATION-CONSENT_EVENTHUB_HOST",
      "value": "eventhub"
    },
    {
      "name": "APPLICATION-CONSENT_EVENTHUB_PORT",
      "value": "5000"
    },
    {
      "name": "APPLICATION-CONSENT_TENANT_HOST",
      "value": "tenant"
    },
    {
      "name": "APPLICATION-CONSENT_TENANT_PORT",
      "value": "5000"
    },
    {
      "name": "APPLICATION-CONSENT_DOCUMENTGENERATOR_HOST",
      "value": "document-generator"
    },
    {
      "name": "APPLICATION-CONSENT_DOCUMENTGENERATOR_PORT",
      "value": "5000"
    },
    {
      "name": "APPLICATION-CONSENT_DOCUMENTMANAGER_HOST",
      "value": "document-manager"
    },
    {
      "name": "APPLICATION-CONSENT_DOCUMENTMANAGER_PORT",
      "value": "5000"
    },
    {
      "name": "APPLICATION-CONSENT_TEMPLATEMANAGER_HOST",
      "value": "tempalate-manager"
    },
    {
      "name": "APPLICATION-CONSENT_TEMPLATEMANAGER_PORT",
      "value": "5000"
    },
    {
      "name": "APPLICATION-CONSENT_APPLICATIONDOCUMENT_HOST",
      "value": "application-document"
    },
    {
      "name": "APPLICATION-CONSENT_APPLICATIONDOCUMENT_PORT",
      "value": "5000"
    },
    {
      "name": "SECRET_KEY",
      "value": "UzFnbjFuZz1zM2NyM3Q="
    }
  ]
}
