{
  "memoryReservation": 352,
  "memory": 384,
  "portMappings": [{
    "containerPort": 5000,
    "protocol": "tcp"
  }],
  "environment": [{
      "name": "ASPNETCORE_ENVIRONMENT",
      "value": "Development"
    },
    {
      "name": "EXPIRY-EXTENSION-PROCESSOR_NATS_URL",
      "value": "${NATS_URL}"
    },
    {
		"name": "EXPIRY-EXTENSION-PROCESSOR_EVENTHUB_HOST",
		"value": "eventhub"
    },
    {
		"name": "EXPIRY-EXTENSION-PROCESSOR_EVENTHUB_PORT",
		"value": "5000"
    },
    {
		"name": "EXPIRY-EXTENSION-PROCESSOR_TENANT_HOST",
		"value": "tenant"
    },
    {
		"name": "EXPIRY-EXTENSION-PROCESSOR_TENANT_PORT",
		"value": "5000"
    },
    {
		"name": "EXPIRY-EXTENSION-PROCESSOR_CONFIGURATION_HOST",
		"value": "configuration"
    },
    {
		"name": "EXPIRY-EXTENSION-PROCESSOR_CONFIGURATION_PORT",
		"value": "5000"
    },
    {
		"name": "EXPIRY-EXTENSION-PROCESSOR_APPLICATION_HOST",
		"value": "application"
    },
    {
		"name": "EXPIRY-EXTENSION-PROCESSOR_APPLICATION_PORT",
		"value": "5000"
    },
    {
      "name": "SECRET_KEY",
      "value": "UzFnbjFuZz1zM2NyM3Q="
    }
  ]
}
