{
  "memoryReservation": 1000,
  "memory": 1024,
  "portMappings": [{
    "containerPort": 5000,
    "protocol": "tcp"
  }],
  "environment": [{
      "name": "ASPNETCORE_ENVIRONMENT",
      "value": "Development"
    },
    {
      "name": "SAVE-CRIF-DOCUMENT_NATS_URL",
      "value": "${NATS_URL}"
    },
	{
		"name": "TASK_TENANT",
		"value": "${TENANT_NAME}"
	},
    {
		"name": "SAVE-CRIF-DOCUMENT_EVENTHUB_HOST",
		"value": "eventhub"
    },
    {
		"name": "SAVE-CRIF-DOCUMENT_EVENTHUB_PORT",
		"value": "5000"
    },
    {
		"name": "SAVE-CRIF-DOCUMENT_TENANT_HOST",
		"value": "tenant"
    },
    {
		"name": "SAVE-CRIF-DOCUMENT_TENANT_PORT",
		"value": "5000"
    },
    {
		"name": "SAVE-CRIF-DOCUMENT_CONFIGURATION_HOST",
		"value": "configuration"
    },
    {
		"name": "SAVE-CRIF-DOCUMENT_CONFIGURATION_PORT",
		"value": "5000"
    },
    {
		"name": "SAVE-CRIF-DOCUMENT_APPLICATION_DOCUMENT_HOST",
		"value": "application-document"
    },
    {
		"name": "SAVE-CRIF-DOCUMENT_APPLICATION_DOCUMENT_PORT",
		"value": "5000"
    },
	{
      "name": "SECRET_KEY",
      "value": "UzFnbjFuZz1zM2NyM3Q="
    }
  ]
}
