{
  "memoryReservation": 256,
  "memory": 256,
  "portMappings": [{
    "containerPort": 5000,
    "protocol": "tcp"
  }],
  "environment": [{
      "name": "ASPNETCORE_ENVIRONMENT",
      "value": "Development"
    },
    {
      "name": "VERIFICATION-ENGINE_NATS_URL",
      "value": "${NATS_URL}"
    },
    {
      "name": "VERIFICATION-ENGINE_MONGO_CONNECTION",
      "value": "${APP_MONGODB_URI}"
    },
    {
      "name": "VERIFICATION-ENGINE_MONGO_DATABASE",
      "value": "verification-engine"
    },
    {
      "name": "VERIFICATION-ENGINE_DECISIONENGINE_HOST",
      "value": "decision-engine"
    },
    {
      "name": "VERIFICATION-ENGINE_DECISIONENGINE_PORT",
      "value": "5000"
    },
    {
      "name": "VERIFICATION-ENGINE_CONFIGURATION_PORT",
      "value": "5000"
    },
    {
      "name": "VERIFICATION-ENGINE_CONFIGURATION_HOST",
      "value": "configuration"
    },
    {
      "name": "VERIFICATION-ENGINE_EVENTHUB_HOST",
      "value": "eventhub"
    },
    {
      "name": "VERIFICATION-ENGINE_EVENTHUB_PORT",
      "value": "5000"
    },
    {
      "name": "VERIFICATION-ENGINE_TENANT_HOST",
      "value": "tenant"
    },
    {
      "name": "VERIFICATION-ENGINE_TENANT_PORT",
      "value": "5000"
    },
    {
      "name": "VERIFICATION-ENGINE_LOOKUPSERVICE_HOST",
      "value": "lookup-service"
    },
    {
      "name": "VERIFICATION-ENGINE_LOOKUPSERVICE_PORT",
      "value": "5000"
    },
    {
      "name": "VERIFICATION-ENGINE_DATAATTRIBUTE_HOST",
      "value": "data-attributes"
    },
    {
      "name": "VERIFICATION-ENGINE_DATAATTRIBUTE_PORT",
      "value": "5000"
    },
    {
      "name": "VERIFICATION-ENGINE_APPLICATIONDOCUMENT_HOST",
      "value": "application-document"
    },
    {
      "name": "VERIFICATION-ENGINE_APPLICATIONDOCUMENT_PORT",
      "value": "5000"
    },
    {
      "name": "VERIFICATION-ENGINE_PRODUCTRULE_HOST",
      "value": "productrule"
    },
    {
      "name": "VERIFICATION-ENGINE_PRODUCTRULE_PORT",
      "value": "5000"
    },
    {
      "name": "SECRET_KEY",
      "value": "UzFnbjFuZz1zM2NyM3Q="
    }
  ]
}
