{
  "memoryReservation": 256,
  "portMappings": [{
      "containerPort": 4222,
      "protocol": "tcp"
    },
    {
      "containerPort": 8222,
      "protocol": "tcp"
    }
  ],
  "command": [
    "-m",
    "8222",
    "--max_subs",
    "0",
    "--max_channels",
    "0"
  ]
}
